「陽明文庫所蔵史料における料紙構成物の変化：統計ソフトウェアRを用いた可視化の試み」関連データ
…
ggsave(file = "fig5.png", dpi = 300, width=5,height=6) # ファイルの保存

料紙面積と構成物の相関分析（無相関検定）

帰無仮説H₀：母相関は0である「調査史料では料紙面積と構成物に相関がない」

対立仮説H₁：母相関は0ではない「調査史料では料紙面積と構成物に相関がある」

tbs1 <- read_csv("yomei-square.csv")  # CSVファイルの読み取り
tbs1 # 読み込んだデータ

# A tibble: 89 x 4
   番号   紙素材 料紙面積 構成物合計
   <chr>  <chr>     <dbl>      <dbl>
 1 11-391 コウゾ    2612.        149
 2 11-392 コウゾ    2650.         62
 3 11-393 コウゾ    2015.        125
 4 11-394 コウゾ    1991.         84
 5 11-396 コウゾ    2020.        109
 6 11-397 コウゾ    2141.         60
 7 11-398 コウゾ    2036.         91
 8 11-399 コウゾ    1944.         58
 9 11-400 コウゾ    2056.        180
10 11-401 コウゾ    2116.         24
# ... with 79 more rows
…
料紙構成物に対する主成分分析

tbs3 <- read_csv("yomei-compo.csv")  # CSVファイルの読み取り
tbs3 # 読み込んだデータ

# A tibble: 89 x 7
   番号   紙素材 デンプン粒  鉱物 細胞組織  繊維  ほか
   <chr>  <chr>       <dbl> <dbl>    <dbl> <dbl> <dbl>
 1 11-391 コウゾ         20     3       97     1    28
 2 11-392 コウゾ          0     0       62     0     0
 3 11-393 コウゾ          5     1      119     0     0
 4 11-394 コウゾ          0     0       74     0    10
 5 11-396 コウゾ          0     1      108     0     0
 6 11-397 コウゾ          0     1       58     1     0
 7 11-398 コウゾ          0     0       91     0     0
 8 11-399 コウゾ          0     0       48     0    10
 9 11-400 コウゾ         81     4       95     0     0
10 11-401 コウゾ          0     0       19     0     5
# ... with 79 more rows
…
デンプン粒と鉱物は、同じ意味を持つ変数、すなわち填料である。細胞組織の断片、繊維とほか（他の物質）は異なる変数を示すため、素材由来の構成物だけの含有ではない。

料紙構成物の因子分析

料紙構成物に共通して影響する因子を仮定、この因子から変数間の相関関係を考える（図10へ反映）。

# 因子分析を行うパッケージを読み込む
library(psych)
library(GPArotation)

tbs5 <- read_csv("yomei-compo.csv")  # CSVファイルの読み取り
tbs5 # 読み込んだデータ

# A tibble: 89 x 7
   番号   紙素材 デンプン粒  鉱物 細胞組織  繊維  ほか
   <chr>  <chr>       <dbl> <dbl>    <dbl> <dbl> <dbl>
 1 11-391 コウゾ         20     3       97     1    28
 2 11-392 コウゾ          0     0       62     0     0
 3 11-393 コウゾ          5     1      119     0     0
 4 11-394 コウゾ          0     0       74     0    10
 5 11-396 コウゾ          0     1      108     0     0
 6 11-397 コウゾ          0     1       58     1     0
 7 11-398 コウゾ          0     0       91     0     0
 8 11-399 コウゾ          0     0       48     0    10
 9 11-400 コウゾ         81     4       95     0     0
10 11-401 コウゾ          0     0       19     0     5
# ... with 79 more rows
…
